8
2
15
20
111111111111111
100000000000001
110111010110101
100100010000101
110001110101101
111101100001001
101000110101011
100010111100001
101110000101011
111000000111111
111010000100011
100000000001001
110111110100001
100100010000001
110001110101101
11110110000100-1
101000100101011
100010111100001
101010000101011
111111111111111